{
    "content": [
        {
            "id": "647c4486a79e4c751093b3f1",
            "newLocation": "/media/Series-EN/Selena + Chef/Season 2",
            "newName": "Selena + Chef s02e08___.mkv",
            "originalName": "Selena.plus.Chef.S02E08.DV.HDR.2160p.WEB.h265-EDITH.mkv",
            "unsorted": false,
            "createdBy": null,
            "createdAt": "2023-06-04T08:00:06.115+00:00",
            "lastModifiedBy": null,
            "lastModifiedAt": "2023-06-04T08:00:06.115+00:00"
        },
        {
            "id": "647c4486a79e4c751093b3f2",
            "newLocation": "/media/Series-EN/Selena + Chef/Season 2",
            "newName": "Selena + Chef s02e09_[eng]_2160p_21 Mbps.mkv",
            "originalName": "Selena.plus.Chef.S02E09.DV.HDR.2160p.WEB.h265-EDITH.mkv",
            "unsorted": false,
            "createdBy": null,
            "createdAt": "2023-06-04T08:00:06.115+00:00",
            "lastModifiedBy": null,
            "lastModifiedAt": "2023-06-04T08:00:06.115+00:00"
        },
        {
            "id": "647c4486a79e4c751093b3ef",
            "newLocation": "/media/Series-EN/Selena + Chef/Season 2",
            "newName": "Selena + Chef s02e06___.mkv",
            "originalName": "Selena.plus.Chef.S02E06.DV.HDR.2160p.WEB.h265-EDITH.mkv",
            "unsorted": false,
            "createdBy": null,
            "createdAt": "2023-06-04T08:00:06.114+00:00",
            "lastModifiedBy": null,
            "lastModifiedAt": "2023-06-04T08:00:06.114+00:00"
        },
        {
            "id": "647c4486a79e4c751093b3ee",
            "newLocation": "/media/Series-EN/Selena + Chef/Season 2",
            "newName": "Selena + Chef s02e05_[eng]_2160p_21 Mbps.mkv",
            "originalName": "Selena.plus.Chef.S02E05.DV.HDR.2160p.WEB.h265-EDITH.mkv",
            "unsorted": false,
            "createdBy": null,
            "createdAt": "2023-06-04T08:00:06.114+00:00",
            "lastModifiedBy": null,
            "lastModifiedAt": "2023-06-04T08:00:06.114+00:00"
        },
        {
            "id": "647c4486a79e4c751093b3ed",
            "newLocation": "/media/Series-EN/Selena + Chef/Season 2",
            "newName": "Selena + Chef s02e04___.mkv",
            "originalName": "Selena.plus.Chef.S02E04.DV.HDR.2160p.WEB.h265-EDITH.mkv",
            "unsorted": false,
            "createdBy": null,
            "createdAt": "2023-06-04T08:00:06.114+00:00",
            "lastModifiedBy": null,
            "lastModifiedAt": "2023-06-04T08:00:06.114+00:00"
        },
        {
            "id": "647c4486a79e4c751093b3f0",
            "newLocation": "/media/Series-EN/Selena + Chef/Season 2",
            "newName": "Selena + Chef s02e07___.mkv",
            "originalName": "Selena.plus.Chef.S02E07.DV.HDR.2160p.WEB.h265-EDITH.mkv",
            "unsorted": false,
            "createdBy": null,
            "createdAt": "2023-06-04T08:00:06.114+00:00",
            "lastModifiedBy": null,
            "lastModifiedAt": "2023-06-04T08:00:06.114+00:00"
        },
        {
            "id": "647c4486a79e4c751093b3ec",
            "newLocation": "/media/Series-EN/Selena + Chef/Season 2",
            "newName": "Selena + Chef s02e03___.mkv",
            "originalName": "Selena.plus.Chef.S02E03.DV.HDR.2160p.WEB.h265-EDITH.mkv",
            "unsorted": false,
            "createdBy": null,
            "createdAt": "2023-06-04T08:00:06.113+00:00",
            "lastModifiedBy": null,
            "lastModifiedAt": "2023-06-04T08:00:06.113+00:00"
        },
        {
            "id": "647c4486a79e4c751093b3eb",
            "newLocation": "/media/Series-EN/Selena + Chef/Season 2",
            "newName": "Selena + Chef s02e02_[eng]_2160p_22 Mbps.mkv",
            "originalName": "Selena.plus.Chef.S02E02.DV.HDR.2160p.WEB.h265-EDITH.mkv",
            "unsorted": false,
            "createdBy": null,
            "createdAt": "2023-06-04T08:00:06.113+00:00",
            "lastModifiedBy": null,
            "lastModifiedAt": "2023-06-04T08:00:06.113+00:00"
        },
        {
            "id": "647c4486a79e4c751093b3ea",
            "newLocation": "/media/Series-EN/Selena + Chef/Season 2",
            "newName": "Selena + Chef s02e01_[eng]_2160p_22 Mbps.mkv",
            "originalName": "Selena.plus.Chef.S02E01.DV.HDR.2160p.WEB.h265-EDITH.mkv",
            "unsorted": false,
            "createdBy": null,
            "createdAt": "2023-06-04T08:00:06.102+00:00",
            "lastModifiedBy": null,
            "lastModifiedAt": "2023-06-04T08:00:06.102+00:00"
        },
        {
            "id": "6479cbb6167c6006707a5cab",
            "newLocation": "/media/Series-EN/Silo/Season 1",
            "newName": "Silo s01e06_[eng]_2160p_22 Mbps.mkv",
            "originalName": "silo.s01e06.2160p.web.h265-cakes.mkv",
            "unsorted": false,
            "createdBy": null,
            "createdAt": "2023-06-02T11:00:06.587+00:00",
            "lastModifiedBy": null,
            "lastModifiedAt": "2023-06-02T11:00:06.587+00:00"
        },
        {
            "id": "64760165ab811252b5000c2e",
            "newLocation": "/media/Series/Barry/Season 4",
            "newName": "Barry s04e08_[spa]_1080p_4.2 Mbps.mkv",
            "originalName": "Barry - Temporada 4 [HDTV 720p][Cap.408].mkv",
            "unsorted": false,
            "createdBy": null,
            "createdAt": "2023-05-30T14:00:05.848+00:00",
            "lastModifiedBy": null,
            "lastModifiedAt": "2023-05-30T14:00:05.848+00:00"
        },
        {
            "id": "64759ef7d516af50f30e2075",
            "newLocation": "/media/Series-EN/The Witcher/Season 1",
            "newName": "The Witcher s01e06_[eng]_2160p_37 Mbps.mkv",
            "originalName": "The.Witcher.S01E06.Rare.Species.2160p.NF.WEBRip.DDP5.1.x264-NTb.mkv",
            "unsorted": false,
            "createdBy": null,
            "createdAt": "2023-05-30T07:00:07.348+00:00",
            "lastModifiedBy": null,
            "lastModifiedAt": "2023-05-30T07:00:07.348+00:00"
        },
        {
            "id": "64759ef7d516af50f30e2076",
            "newLocation": "/media/Series-EN/The Witcher/Season 1",
            "newName": "The Witcher s01e07_[eng]_2160p_41 Mbps.mkv",
            "originalName": "The.Witcher.S01E07.Before.A.Fall.2160p.NF.WEBRip.DDP5.1.x264-NTb.mkv",
            "unsorted": false,
            "createdBy": null,
            "createdAt": "2023-05-30T07:00:07.348+00:00",
            "lastModifiedBy": null,
            "lastModifiedAt": "2023-05-30T07:00:07.348+00:00"
        },
        {
            "id": "64759ef7d516af50f30e2077",
            "newLocation": "/media/Series-EN/The Witcher/Season 1",
            "newName": "The Witcher s01e08_[eng]_2160p_45 Mbps.mkv",
            "originalName": "The.Witcher.S01E08.Much.More.2160p.NF.WEBRip.DDP5.1.x264-NTb.mkv",
            "unsorted": false,
            "createdBy": null,
            "createdAt": "2023-05-30T07:00:07.348+00:00",
            "lastModifiedBy": null,
            "lastModifiedAt": "2023-05-30T07:00:07.348+00:00"
        },
        {
            "id": "64759ef7d516af50f30e2074",
            "newLocation": "/media/Series-EN/The Witcher/Season 1",
            "newName": "The Witcher s01e05_[eng]_2160p_42 Mbps.mkv",
            "originalName": "The.Witcher.S01E05.Bottled.Appetites.2160p.NF.WEBRip.DDP5.1.x264-NTb.mkv",
            "unsorted": false,
            "createdBy": null,
            "createdAt": "2023-05-30T07:00:07.348+00:00",
            "lastModifiedBy": null,
            "lastModifiedAt": "2023-05-30T07:00:07.348+00:00"
        },
        {
            "id": "64759ef7d516af50f30e2073",
            "newLocation": "/media/Series-EN/The Witcher/Season 1",
            "newName": "The Witcher s01e04_[eng]_2160p_45 Mbps.mkv",
            "originalName": "The.Witcher.S01E04.Of.Banquets.Bastards.And.Burials.2160p.NF.WEBRip.DDP5.1.x264-NTb.mkv",
            "unsorted": false,
            "createdBy": null,
            "createdAt": "2023-05-30T07:00:07.343+00:00",
            "lastModifiedBy": null,
            "lastModifiedAt": "2023-05-30T07:00:07.343+00:00"
        },
        {
            "id": "64759ef7d516af50f30e2072",
            "newLocation": "/media/Series-EN/The Witcher/Season 1",
            "newName": "The Witcher s01e03_[eng]_2160p_40 Mbps.mkv",
            "originalName": "The.Witcher.S01E03.Betrayer.Moon.2160p.NF.WEBRip.DDP5.1.x264-NTb.mkv",
            "unsorted": false,
            "createdBy": null,
            "createdAt": "2023-05-30T07:00:07.342+00:00",
            "lastModifiedBy": null,
            "lastModifiedAt": "2023-05-30T07:00:07.342+00:00"
        },
        {
            "id": "64759ef7d516af50f30e2071",
            "newLocation": "/media/Series-EN/The Witcher/Season 1",
            "newName": "The Witcher s01e02_[eng]_2160p_40 Mbps.mkv",
            "originalName": "The.Witcher.S01E02.Four.Marks.2160p.NF.WEBRip.DDP5.1.x264-NTb.mkv",
            "unsorted": false,
            "createdBy": null,
            "createdAt": "2023-05-30T07:00:07.342+00:00",
            "lastModifiedBy": null,
            "lastModifiedAt": "2023-05-30T07:00:07.342+00:00"
        },
        {
            "id": "64759ef7d516af50f30e2070",
            "newLocation": "/media/Series-EN/The Witcher/Season 1",
            "newName": "The Witcher s01e01_[eng]_2160p_38 Mbps.mkv",
            "originalName": "The.Witcher.S01E01.The.Ends.Beginning.2160p.NF.WEBRip.DDP5.1.x264-NTb.mkv",
            "unsorted": false,
            "createdBy": null,
            "createdAt": "2023-05-30T07:00:07.342+00:00",
            "lastModifiedBy": null,
            "lastModifiedAt": "2023-05-30T07:00:07.342+00:00"
        },
        {
            "id": "64759ef7d516af50f30e206c",
            "newLocation": "/media/Series-EN/Mayor of Kingstown/Season 2",
            "newName": "Mayor of Kingstown s02e08_[eng]_2160p_15 Mbps.mkv",
            "originalName": "Mayor.Of.Kingstown.S02E08.2160p.AMZN.WEB-DL.DDP5.1.HEVC-NTb.mkv",
            "unsorted": false,
            "createdBy": null,
            "createdAt": "2023-05-30T07:00:07.279+00:00",
            "lastModifiedBy": null,
            "lastModifiedAt": "2023-05-30T07:00:07.279+00:00"
        }
    ],
    "pageable": {
        "sort": {
            "empty": true,
            "sorted": false,
            "unsorted": true
        },
        "offset": 0,
        "pageNumber": 0,
        "pageSize": 20,
        "paged": true,
        "unpaged": false
    },
    "totalPages": 490,
    "totalElements": 9786,
    "last": false,
    "size": 20,
    "number": 0,
    "sort": {
        "empty": true,
        "sorted": false,
        "unsorted": true
    },
    "numberOfElements": 20,
    "first": true,
    "empty": false
}
